[
    "HLT_4j15_gsc35_bmv2c1077_split_L14J15.0ETA25",
    "HLT_2j35_gsc55_bmv2c1070_split_2j35_gsc55_boffperf_split_L14J15.0ETA25",
    "HLT_j35_gsc55_bmv2c1050_split_ht700_L1HT190-J15s5.ETA21",
    "HLT_j110_gsc150_boffperf_split_2j35_gsc55_bmv2c1070_split_L1J85_3J30",
    "HLT_2j15_gsc35_bmv2c1060_split_3j15_gsc35_boffperf_split",
    "HLT_j225_gsc300_bmv2c1077_split",
    "HLT_2j15_gsc35_bmv2c1070_split_2j15_gsc35_bmv2c1085_split_L14J15.0ETA25",
    "HLT_2j35_gsc55_bmv2c1050_split_ht300_L1HT190-J15s5.ETA21",
    "HLT_2j15_gsc35_bmv2c1050_split_2j15_gsc35_boffperf_split_L14J15.0ETA25",
    "HLT_2j15_gsc35_bmv2c1040_split_2j15_gsc35_boffperf_split_L14J15.0ETA25",
    "HLT_j150_gsc175_bmv2c1060_split_j45_gsc60_bmv2c1060_split",
    "HLT_j225_gsc275_bmv2c1070_split",
    "HLT_j60_gsc85_bmv2c1050_split_3j60_gsc85_boffperf_split",
    "HLT_j225_gsc275_bmv2c1060_split",
    "HLT_j175_gsc225_bmv2c1040_split",
    "HLT_2j25_gsc45_bmv2c1050_split_2j25_gsc45_boffperf_split_L14J15.0ETA25",
    "HLT_j225_gsc300_bmv2c1070_split",
    "HLT_j55_gsc75_bmv2c1040_split_3j55_gsc75_boffperf_split",
    "HLT_2j35_gsc55_bmv2c1060_split_ht300_L1HT190-J15s5.ETA21",
    "HLT_2j15_gsc35_bmv2c1050_split_3j15_gsc35_boffperf_split",
    "HLT_2j25_gsc45_bmv2c1060_split_3j25_gsc45_boffperf_split",
    "HLT_j50_gsc65_bmv2c1040_split_3j50_gsc65_boffperf_split",
    "HLT_2j25_gsc45_bmv2c1060_split_2j25_gsc45_boffperf_split_L14J15.0ETA25",
    "HLT_j150_gsc175_bmv2c1070_split_j45_gsc60_bmv2c1070_split",
    "HLT_2j35_gsc55_bmv2c1060_split_2j35_gsc55_boffperf_split_L14J15.0ETA25",
    "HLT_j110_gsc150_boffperf_split_2j35_gsc55_bmv2c1077_split_L1J85_3J30",
    "HLT_j225_gsc360_bmv2c1085_split",
    "HLT_2j25_gsc45_bmv2c1070_split_3j25_gsc45_boffperf_split",
    "HLT_j225_gsc360_bmv2c1077_split"
]
