x,y
-21.036184013475854, 2.011513887230739
-20.82398242196392, 2.011513887230739
-20.611684985108027, 1.9990009850689796
-20.399483393596093, 1.9990009850689796
-20.045814074409527, 1.9990009850689796
-19.72751168714163, 1.9990009850689796
-19.409113454529766, 1.9865659211570597
-19.09071522191791, 1.9742082112913106
-18.772412834650005, 1.9742082112913106
-18.34791380628218, 1.9619273742801182
-18.064978350932932, 1.9619273742801182
-17.74648427297712, 1.937594409002933
-17.42827773105317, 1.949722931925191
-17.12756296440064, 1.937594409002933
-16.826848197748113, 1.925541333245945
-16.543912742398863, 1.925541333245945
-16.08404678211238, 1.9135632353246324
-15.659547753744556, 1.9016596488289303
-15.235144570720685, 1.9016596488289303
-14.846012474271514, 1.8898301102501434
-14.527518396315703, 1.8663913372071967
-14.2092160090478, 1.8663913372071967
-13.855450844517286, 1.8547811900706133
-13.572419543824086, 1.8432432654705622
-13.25411715655618, 1.8432432654705622
-12.971085855862977, 1.8317771141366992
-12.652687623251119, 1.8203822895934305
-12.298826613376654, 1.7978048488458427
-11.945157294190093, 1.7978048488458427
-11.591392129659578, 1.7866213535081519
-11.202164187866458, 1.7644626355411621
-10.74220238223602, 1.742578742892348
-10.388437217705508, 1.7317387892348608
-9.999305121256338, 1.7209662670181476
-9.610077179463214, 1.699621841649739
-9.256216169588747, 1.6785421422687241
-8.937722091632939, 1.6577238855893168
-8.619228013677127, 1.6371638290469557
-8.300733935721318, 1.6168587702932489
-7.982335703109463, 1.6068008752270029
-7.663841625153648, 1.5868723954999713
-7.345251701853886, 1.5574421500915017
-7.097587333079339, 1.5477538643827087
-6.778997409779578, 1.5190491139630389
-6.4605033318237695, 1.500208982656973
-6.177376185786613, 1.4816025176256622
-5.8587862624868485, 1.4541246146668727
-5.610930203024399, 1.4271563188004235
-5.363074143561949, 1.4006881788178696
-5.07985115218084, 1.3747109187935271
-4.83209093806234, 1.357660953799056
-4.548772101337278, 1.3241927918860452
-4.194719400774904, 1.2915496650148839
-3.911400564049849, 1.2597112349661614
-3.627985881980834, 1.2210146288369081
-3.309204267993163, 1.183506729519469
-2.9548640313989303, 1.1329233868734692
-2.671353503985962, 1.0912905121707952
-2.352476044654342, 1.0511875699208288
-2.1751621583412977, 1.0188965255670914
-1.891555785584373, 0.975348659899691
-1.7141460539273794, 0.9395063699271211
-1.5368321676143353, 0.910646019281784
-1.3949810585638964, 0.8881973745494762
-1.2884968814321205, 0.866302118993255
-1.1111829951190728, 0.8396905028092331
-0.969236040724681, 0.8138963590755256
-0.8271932409863432, 0.7839871476222551
-0.7205173731666576, 0.7551770453120368
-0.5785704187722693, 0.7319790393967542
-0.47189455095258026, 0.7050801405080226
-0.3297559058702859, 0.674944857411924
-0.1524420195572418, 0.6542114745688825
-0.01020752913099443, 0.6223546522892726
0.09656418403264766, 0.5957550750846189
0.23879867445889857, 0.5667447866887249
0.34557038762253356, 0.5425219875927283
0.4523421007861721, 0.5193344763543815
0.5592096592937708, 0.4940454883741594
0.6659813724574093, 0.4729298735679072
0.7728489309649902, 0.4499005573320529
0.9150834213912447, 0.42799265345759163
1.0926848437361443, 0.4071515547789692
1.2349193341623987, 0.3873253132261012
1.3416910473260373, 0.37077094260385735
1.4482710698017627, 0.3593813663804629
1.5549469376214518, 0.34617475455626495
1.732452514622409, 0.33137916802654227
1.8038572958673882, 0.31721594817832155
1.9104373183431278, 0.30747150813218366
1.9806919554606708, 0.31721594817832155
2.0155796606595686, 0.3272692106984169
2.085546761745249, 0.3440213263039764
2.1557055535188425, 0.35714578456080714
2.2257684999484795, 0.3730918121601397
2.3309108422649203, 0.397114723329743
2.4006862526627017, 0.42268443944722567
2.4705575084044398, 0.4471018882837537
2.5405246094901273, 0.4699879474520129
2.6455711064626186, 0.5033812315765278
2.7507134487790594, 0.5357933141161947
2.8207763952086964, 0.5597156879584095
2.8908393416383333, 0.5847061601795499
2.960614752036115, 0.6223546522892726
2.994831539827338, 0.6707462689661815
3.064702795569069, 0.7094936444934008
3.0992071193921475, 0.7504793613722035
3.1011373381245377, 0.8018537268638293
3.1250986741127917, 0.8337441917531287
3.1489934508344035, 0.8706677416259877
3.1729547868226575, 0.905295003574581
3.196649885744371, 0.9577576860219154
3.2696654012418946, 1.0001733502457149
3.2936932964967838, 1.0354544160444672
3.317321836151862, 1.1002173019103512
3.3167893620187883, 1.1390274131896492
3.3895386404497714, 1.21026831111378
3.462554155947302, 1.2638667682748246
3.462021681814228, 1.3084496064412339
3.5101440315906274, 1.3963247945679367
3.5341053675788814, 1.4518579240445422
3.557867025767223, 1.5293527854316635
3.581894921022112, 1.5833006298119043
3.605856257010359, 1.6462699613154255
3.6541782845866635, 1.7341418255971042
3.6780065020416473, 1.8188052912213881
3.701768160229996, 1.9158864598392629
3.7502233063395636, 2.0007342224387963
3.7494245951399563, 2.107526091445125
3.7980794190494223, 2.172434558429676
3.7970810300499096, 2.3183347861305985
3.845269939092958, 2.463335907210019
3.9674061933663864, 2.5724282488696586
4.015927898742589, 2.6747361012901694
4.08894341424012, 2.793190601854733
4.137198882549789, 2.9550585796756357
4.21021439804732, 3.085927560740969
4.258602984890253, 3.2365872807831084
4.331685059654411, 3.3653093526286333
4.404700575151942, 3.5143468739073103
4.477649531382831, 3.685922682390225
4.526171236759033, 3.8325152390491297
4.574626382868615, 4.002243638919557
4.647575339099504, 4.197639316333083
4.671669793621021, 4.326919961580246
4.744818427651815, 4.479551850675214
4.793340133028018, 4.657707773916331
4.866422207792176, 4.8429491231205635
4.988758139865524, 4.99210428876332
5.184974857902624, 5.079389332654344
5.479433053491562, 5.168200522324054
5.675649771528676, 5.258564541850662
5.970174526384227, 5.327372916124782
6.2652317553728665, 5.213186742470228
6.48640819839774, 5.168200522324054
6.732278129343825, 5.079389332654344
7.002708429677881, 4.99210428876332
7.2978322179331485, 4.863981001345691
7.519141779491285, 4.780397568892855
7.765078269704006, 4.677935189117034
8.084629308813973, 4.5975487978482095
8.404246907190561, 4.4990055733205265
8.650116838136654, 4.421693937370771
8.920613697737338, 4.326919961580246
9.190977438804751, 4.271033442491369
9.412287000362888, 4.197639316333083
9.608903073999798, 4.161416572796887
9.903960302988438, 4.072221346010329
10.198884413443807, 4.019624515468349
10.469248154511227, 3.967707025843282
10.78879919362118, 3.899525309653302
11.157470971507045, 3.8325152390491297
11.501515820738327, 3.783014453740564
11.796506490460331, 3.718006524438447
12.06680367226111, 3.685922682390225
12.36166122344985, 3.6541157018573918
12.804014109499583, 3.5913227894556905
13.197113138240141, 3.56033214100908
13.590278726247334, 3.5143468739073103
14.057125422418395, 3.468955552737176
14.425730641037624, 3.424150506090159
14.769642371735642, 3.4093444621420694
15.138314149621507, 3.350757738122988
15.408478212889015, 3.350757738122988
15.77708343150826, 3.3074793350194964
16.096434792818314, 3.2931777777998015
16.366665415352465, 3.278938060585195
16.808885182868927, 3.250643077741504
17.22654458099744, 3.222592261161198
17.595016681083408, 3.208657756074269
17.938928411781426, 3.194783503857167
18.479456216116347, 3.153519664715586
18.74968683865049, 3.1398838298818372
18.995290532530042, 3.1398838298818372
19.24089422640961, 3.1398838298818372
19.560245587719663, 3.1263069564662436
19.92871768780563, 3.1127887895193385
20.17452105948508, 3.0725839945035367
20.39563094324332, 3.059298125913385
20.56755352895901, 3.059298125913385
20.7394761146747, 3.059298125913385
20.886904890269065, 3.046069705485598
